0	2	0	2	0
1	9	0	9	0
2	14	0	13	1
3	11	0	11	0
4	16	0	16	0
5	9	0	9	0
6	9	0	9	0
7	7	0	7	0
8	9	0	9	0
9	21	0	21	0
10	12	0	11	1
11	7	0	7	0
12	7	0	7	0
13	9	0	9	0
14	12	0	12	0
15	12	0	12	0
16	8	0	8	0
17	14	0	14	0
18	11	0	11	0
19	9	0	8	1
20	9	0	8	1
21	14	0	14	0
22	13	0	12	1
23	11	0	11	0
24	42	0	42	0
25	140	1	138	1
26	1429	3	1422	4
27	1622	9	1609	4
28	1839	23	1809	7
29	2012	24	1984	4
30	1635	41	1584	10
31	319	58	249	12
32	462	87	354	21
33	704	167	516	21
34	1125	193	918	14
35	1518	310	1191	17
36	1672	421	1234	17
37	2056	637	1405	14
38	2524	788	1725	11
39	2758	782	1965	11
40	2913	758	2137	18
41	3385	983	2388	14
42	3572	1043	2523	6
43	3566	970	2587	9
44	3522	1063	2442	17
45	3519	1399	2107	13
46	3311	1499	1800	12
47	3271	1602	1661	8
48	3350	1497	1841	12
49	3832	1879	1938	15
50	3364	2371	983	10
51	5719	5703	5	11
52	257971	257955	5	11
53	271424	271407	0	17
54	279717	279705	3	9
55	270787	270780	1	6
56	248000	247993	1	6
57	217794	217782	2	10
58	190360	190345	1	14
59	179639	179627	2	10
60	185200	185195	0	5
61	200393	200382	1	10
62	219422	219411	2	9
63	231970	231961	1	8
64	240346	240335	0	11
65	237216	237205	1	10
66	220813	220806	1	6
67	197338	197322	1	15
68	174232	174229	0	3
69	160571	160563	1	7
70	157770	157760	0	10
71	169366	169362	2	2
72	182842	182833	1	8
73	193568	193557	4	7
74	202760	202749	1	10
75	202700	202690	2	8
76	193098	193084	6	8
77	177677	177667	0	10
78	156044	156037	0	7
79	139969	139963	0	6
80	135378	135360	3	15
81	139126	139124	0	2
82	149502	149495	1	6
83	161769	161765	1	3
84	169729	169725	0	4
85	174146	174138	3	5
86	168620	168612	2	6
87	156443	156439	0	4
88	139688	139684	0	4
89	125819	125813	0	6
90	116760	116758	0	2
91	115836	115829	2	5
92	122574	122569	1	4
93	131495	131490	2	3
94	140649	140647	0	2
95	146255	146248	0	7
96	144292	144287	0	5
97	135595	135587	2	6
98	124532	124526	0	6
99	112341	112333	4	4
100	102224	102217	2	5
101	98031	98020	1	10
102	100561	100554	2	5
103	106892	106887	0	5
104	114646	114642	1	3
105	120693	120688	0	5
106	121227	121222	2	3
107	118630	118621	1	8
108	110217	110213	1	3
109	99557	99554	1	2
110	91047	91045	0	2
111	85454	85448	1	5
112	84591	84585	1	5
113	88382	88377	3	2
114	94238	94238	0	0
115	99778	99775	0	3
116	101879	101871	3	5
117	101575	101572	0	3
118	96681	96677	1	3
119	88800	88794	1	5
120	81290	81288	0	2
121	74976	74972	0	4
122	72569	72563	2	4
123	74053	74048	0	5
124	77575	77570	2	3
125	82543	82540	1	2
126	85118	85114	1	3
127	85856	85854	1	1
128	84030	84025	0	5
129	79211	79206	1	4
130	73914	73906	1	7
131	69294	69293	0	1
132	65386	65383	2	1
133	64372	64366	2	4
134	65597	65595	0	2
135	68454	68451	1	2
136	72032	72030	0	2
137	74995	74994	0	1
138	75297	75289	3	5
139	72360	72358	2	0
140	69518	69515	2	1
141	66949	66948	0	1
142	62024	62018	2	4
143	57360	57354	1	5
144	55805	55801	0	4
145	58051	58045	2	4
146	60054	60050	0	4
147	62734	62732	1	1
148	64622	64618	0	4
149	65217	65213	2	2
150	65364	65363	0	1
151	65225	65222	1	2
152	59665	59661	1	3
153	53876	53874	1	1
154	51134	51129	1	4
155	51499	51494	3	2
156	53441	53441	0	0
157	55366	55365	0	1
158	58072	58068	0	4
159	58645	58642	1	2
160	56696	56694	1	1
161	54053	54050	2	1
162	51600	51599	0	1
163	50067	50062	1	4
164	50786	50782	0	4
165	53033	53031	0	2
166	56139	56138	0	1
167	60578	60576	0	2
168	61803	61799	0	4
169	60130	60127	0	3
170	56245	56241	1	3
171	53119	53115	0	4
172	50964	50964	0	0
173	51619	51617	1	1
174	54942	54939	0	3
175	59529	59526	1	2
176	62950	62949	0	1
177	63602	63600	1	1
178	62260	62255	0	5
179	59933	59932	0	1
180	55906	55905	0	1
181	53328	53327	0	1
182	51821	51819	0	2
183	51411	51408	1	2
184	52770	52770	0	0
185	54642	54642	0	0
186	56989	56987	0	2
187	58877	58874	1	2
188	59103	59100	1	2
189	57972	57970	0	2
190	56300	56296	3	1
191	54943	54939	0	4
192	54398	54396	0	2
193	55215	55212	2	1
194	55952	55948	1	3
195	57478	57474	0	4
196	58171	58165	0	6
197	59257	59256	0	1
198	58407	58404	1	2
199	57565	57559	0	6
200	57026	57025	0	1
201	56835	56828	1	6
202	57485	57483	0	2
203	59077	59072	0	5
204	60962	60956	1	5
205	61866	61863	0	3
206	62261	62261	0	0
207	61237	61235	0	2
208	60003	60001	1	1
209	58264	58259	1	4
210	57330	57330	0	0
211	56820	56820	0	0
212	56782	56780	0	2
213	58624	58622	1	1
214	60044	60043	0	1
215	61479	61478	0	1
216	61831	61829	0	2
217	61135	61134	0	1
218	60489	60483	2	4
219	58060	58058	2	0
220	56401	56399	1	1
221	55770	55769	0	1
222	55020	55019	0	1
223	55925	55923	2	0
224	56306	56303	1	2
225	56904	56902	0	2
226	57472	57468	2	2
227	57457	57455	0	2
228	56634	56632	0	2
229	55633	55632	0	1
230	54245	54243	1	1
231	52574	52573	0	1
232	52083	52081	1	1
233	52347	52343	0	4
234	52171	52170	0	1
235	52415	52414	0	1
236	52575	52570	2	3
237	52481	52478	0	3
238	52061	52059	0	2
239	51352	51352	0	0
240	50040	50038	1	1
241	48365	48362	1	2
242	47656	47654	0	2
243	46844	46842	0	2
244	47015	47011	1	3
245	47128	47126	0	2
246	47319	47318	0	1
247	47323	47321	0	2
248	46199	46193	0	6
249	46066	46063	0	3
250	45212	45212	0	0
251	44126	44123	0	3
252	43264	43261	0	3
253	42186	42186	0	0
254	41951	41948	1	2
255	42017	42015	0	2
256	41834	41829	2	3
257	41877	41875	1	1
258	41646	41644	0	2
259	41720	41720	0	0
260	40357	40357	0	0
261	39867	39867	0	0
262	38814	38813	0	1
263	37857	37856	0	1
264	37466	37465	0	1
265	37017	37015	1	1
266	37086	37084	0	2
267	37248	37247	0	1
268	36804	36803	0	1
269	37078	37078	0	0
270	36172	36171	0	1
271	35694	35690	0	4
272	34892	34889	0	3
273	34030	34026	0	4
274	33768	33765	0	3
275	33225	33224	0	1
276	33261	33258	0	3
277	33329	33328	0	1
278	33067	33065	0	2
279	32992	32991	0	1
280	32598	32598	0	0
281	31942	31940	0	2
282	31610	31608	2	0
283	30744	30744	0	0
284	30573	30573	0	0
285	30178	30178	0	0
286	30064	30061	0	3
287	29822	29820	0	2
288	29834	29833	0	1
289	29518	29517	0	1
290	29671	29670	0	1
291	29030	29029	0	1
292	28727	28726	0	1
293	28432	28432	0	0
294	27637	27636	0	1
295	27728	27722	0	6
296	27184	27184	0	0
297	27261	27260	0	1
298	26938	26937	0	1
299	27702	27701	0	1
300	27496	27495	0	1
301	27129	27128	1	0
302	26935	26934	0	1
303	26491	26489	0	2
304	25645	25643	0	2
305	25425	25425	0	0
306	25423	25422	0	1
307	25091	25090	0	1
308	25588	25587	0	1
309	25467	25467	0	0
310	25807	25805	1	1
311	25546	25545	1	0
312	25441	25440	0	1
313	24965	24964	0	1
314	24409	24406	1	2
315	23880	23878	0	2
316	23390	23390	0	0
317	23795	23794	0	1
318	23613	23612	0	1
319	23627	23625	0	2
320	23817	23815	0	2
321	23900	23900	0	0
322	23945	23943	0	2
323	23946	23945	1	0
324	23195	23194	1	0
325	22963	22962	0	1
326	22644	22644	0	0
327	22471	22470	0	1
328	22287	22285	0	2
329	22477	22476	0	1
330	22562	22561	0	1
331	22570	22569	0	1
332	22786	22786	0	0
333	22165	22163	0	2
334	22166	22166	0	0
335	22065	22065	0	0
336	21483	21481	1	1
337	21478	21476	0	2
338	21491	21490	0	1
339	21416	21413	2	1
340	21828	21828	0	0
341	21699	21699	0	0
342	22049	22047	0	2
343	21464	21464	0	0
344	21490	21488	1	1
345	21346	21345	0	1
346	21259	21258	0	1
347	21052	21052	0	0
348	20794	20792	0	2
349	20856	20854	0	2
350	20811	20810	0	1
351	21250	21248	1	1
352	21546	21544	0	2
353	21357	21356	1	0
354	20820	20819	0	1
355	20753	20753	0	0
356	20568	20567	0	1
357	20684	20683	0	1
358	20330	20327	2	1
359	20437	20437	0	0
360	20267	20265	0	2
361	20299	20298	0	1
362	20302	20301	1	0
363	20566	20563	0	3
364	20349	20349	0	0
365	20349	20347	1	1
366	20066	20066	0	0
367	20036	20035	1	0
368	20022	20019	0	3
369	19707	19707	0	0
370	19782	19782	0	0
371	19687	19686	0	1
372	19563	19563	0	0
373	19786	19785	0	1
374	19661	19660	1	0
375	19660	19659	0	1
376	19377	19375	0	2
377	19577	19575	0	2
378	19319	19317	0	2
379	19090	19090	0	0
380	19115	19113	1	1
381	19152	19149	2	1
382	19131	19129	1	1
383	19163	19162	0	1
384	18916	18914	1	1
385	19066	19064	0	2
386	18598	18595	0	3
387	18698	18698	0	0
388	18602	18598	1	3
389	18691	18691	0	0
390	18362	18362	0	0
391	18189	18187	0	2
392	18365	18365	0	0
393	18396	18395	1	0
394	18176	18176	0	0
395	17986	17986	0	0
396	17896	17896	0	0
397	17790	17790	0	0
398	17636	17636	0	0
399	17406	17406	0	0
400	17311	17311	0	0
401	17283	17282	0	1
402	17311	17309	0	2
403	17091	17089	1	1
404	17289	17288	0	1
405	16857	16857	0	0
406	16871	16871	0	0
407	16844	16844	0	0
408	16722	16721	1	0
409	16573	16572	1	0
410	16408	16408	0	0
411	16410	16409	0	1
412	16408	16408	0	0
413	16122	16120	0	2
414	16056	16056	0	0
415	15892	15890	1	1
416	15701	15701	0	0
417	15546	15546	0	0
418	15430	15429	1	0
419	15418	15418	0	0
420	15143	15143	0	0
421	14749	14748	1	0
422	14718	14716	2	0
423	14710	14709	1	0
424	14500	14497	0	3
425	14505	14505	0	0
426	14252	14252	0	0
427	14401	14400	0	1
428	14204	14203	1	0
429	14064	14062	0	2
430	13654	13653	0	1
431	13665	13665	0	0
432	13513	13513	0	0
433	13316	13316	0	0
434	13276	13276	0	0
435	13285	13284	1	0
436	13065	13064	1	0
437	13032	13031	1	0
438	12930	12930	0	0
439	12544	12541	0	3
440	12530	12530	0	0
441	12563	12562	1	0
442	12224	12223	0	1
443	12075	12075	0	0
444	12156	12156	0	0
445	11937	11935	1	1
446	11887	11887	0	0
447	11643	11643	0	0
448	11685	11682	2	1
449	11257	11256	0	1
450	11388	11387	0	1
451	11336	11335	0	1
452	11080	11078	2	0
453	11018	11017	0	1
454	10755	10755	0	0
455	10947	10947	0	0
456	10703	10703	0	0
457	10548	10548	0	0
458	10348	10348	0	0
459	10425	10425	0	0
460	10408	10408	0	0
461	10049	10048	0	1
462	10143	10141	1	1
463	9843	9843	0	0
464	9836	9836	0	0
465	9614	9614	0	0
466	9888	9886	1	1
467	9765	9763	1	1
468	9298	9298	0	0
469	9514	9512	0	2
470	9489	9489	0	0
471	9263	9262	0	1
472	9088	9086	0	2
473	8992	8992	0	0
474	8930	8928	0	2
475	8907	8907	0	0
476	8914	8912	1	1
477	8968	8967	1	0
478	8761	8760	1	0
479	8620	8620	0	0
480	8671	8670	1	0
481	8541	8540	0	1
482	8501	8500	0	1
483	8421	8421	0	0
484	8391	8389	0	2
485	8221	8219	1	1
486	8315	8315	0	0
487	8069	8069	0	0
488	8241	8241	0	0
489	8138	8136	0	2
490	7948	7947	0	1
491	7877	7877	0	0
492	7899	7898	0	1
493	7853	7853	0	0
494	7765	7765	0	0
495	7752	7750	0	2
496	7556	7556	0	0
497	7651	7650	1	0
498	7754	7752	1	1
499	7565	7565	0	0
500	7664	7663	0	1
501	6556	6556	0	0
502	6387	6385	1	1
503	6558	6557	0	1
504	6443	6443	0	0
505	6421	6420	1	0
506	6421	6421	0	0
507	6599	6596	0	3
508	6833	6833	0	0
509	7001	6999	1	1
510	7505	7504	0	1
511	8502	8501	0	1
512	10862	10861	1	0
513	14619	14618	0	1
514	20151	20151	0	0
515	24571	24568	3	0
516	2927	2927	0	0
517	2865	2865	0	0
518	2896	2895	0	1
519	2835	2835	0	0
520	2866	2866	0	0
521	2963	2963	0	0
522	2957	2954	3	0
523	2854	2853	1	0
524	2934	2932	1	1
525	2990	2989	1	0
526	2943	2943	0	0
527	2953	2951	0	2
528	2942	2942	0	0
529	2954	2954	0	0
530	3050	3050	0	0
531	3101	3101	0	0
532	3292	3292	0	0
533	3516	3515	1	0
534	3818	3817	1	0
535	4192	4191	1	0
536	4784	4782	2	0
537	5186	5185	0	1
538	4995	4994	1	0
539	5077	5075	0	2
540	5016	5016	0	0
541	5106	5106	0	0
542	5130	5130	0	0
543	5167	5166	0	1
544	5023	5021	1	1
545	4948	4947	0	1
546	5016	5016	0	0
547	4990	4990	0	0
548	5143	5143	0	0
549	5025	5024	0	1
550	4837	4837	0	0
551	4720	4719	0	1
552	4890	4889	1	0
553	4830	4830	0	0
554	4726	4725	1	0
555	4734	4732	0	2
556	4763	4763	0	0
557	4564	4564	0	0
558	4775	4775	0	0
559	4756	4756	0	0
560	4614	4613	0	1
561	4676	4676	0	0
562	4591	4591	0	0
563	4601	4601	0	0
564	4558	4556	0	2
565	4574	4574	0	0
566	4528	4527	1	0
567	4582	4581	1	0
568	4493	4493	0	0
569	4518	4518	0	0
570	4411	4409	0	2
571	4536	4535	0	1
572	4446	4445	1	0
573	4410	4410	0	0
574	4317	4317	0	0
575	4289	4289	0	0
576	4238	4238	0	0
577	4293	4293	0	0
578	4342	4341	0	1
579	4193	4192	0	1
580	4096	4096	0	0
581	4214	4214	0	0
582	4192	4192	0	0
583	4134	4133	1	0
584	4027	4027	0	0
585	4075	4075	0	0
586	4036	4035	0	1
587	3973	3973	0	0
588	4066	4064	0	2
589	3939	3939	0	0
590	3996	3996	0	0
591	3907	3906	0	1
592	3836	3836	0	0
593	3961	3960	1	0
594	3700	3700	0	0
595	3829	3829	0	0
596	3835	3834	1	0
597	3834	3834	0	0
598	3842	3842	0	0
599	3541	3541	0	0
600	3739	3738	1	0
601	3631	3629	0	2
602	3581	3580	0	1
603	3703	3702	0	1
604	3548	3547	0	1
605	3493	3493	0	0
606	3548	3548	0	0
607	3337	3337	0	0
608	3402	3402	0	0
609	3297	3297	0	0
610	3320	3319	1	0
611	3424	3424	0	0
612	3308	3307	1	0
613	3290	3290	0	0
614	3244	3243	0	1
615	3229	3228	0	1
616	3192	3192	0	0
617	3117	3117	0	0
618	3178	3178	0	0
619	3076	3075	0	1
620	3139	3139	0	0
621	3148	3148	0	0
622	2987	2985	0	2
623	3120	3120	0	0
624	2956	2955	0	1
625	2850	2849	0	1
626	2901	2901	0	0
627	2888	2888	0	0
628	2865	2864	0	1
629	2852	2852	0	0
630	2820	2820	0	0
631	2754	2754	0	0
632	2737	2737	0	0
633	2690	2690	0	0
634	2712	2712	0	0
635	2740	2738	0	2
636	2630	2629	0	1
637	2617	2617	0	0
638	2564	2564	0	0
639	2606	2606	0	0
640	2548	2548	0	0
641	2493	2492	0	1
642	2439	2439	0	0
643	2524	2524	0	0
644	2505	2505	0	0
645	2401	2401	0	0
646	2326	2326	0	0
647	2346	2346	0	0
648	2291	2291	0	0
649	2340	2340	0	0
650	2251	2251	0	0
651	2333	2333	0	0
652	2302	2302	0	0
653	2257	2257	0	0
654	2123	2122	0	1
655	2079	2079	0	0
656	2191	2191	0	0
657	2090	2090	0	0
658	2171	2171	0	0
659	2035	2034	1	0
660	2076	2076	0	0
661	2021	2020	1	0
662	1934	1934	0	0
663	2005	2005	0	0
664	1937	1937	0	0
665	1980	1980	0	0
666	1924	1924	0	0
667	1918	1918	0	0
668	1952	1952	0	0
669	1912	1912	0	0
670	1874	1874	0	0
671	1809	1807	2	0
672	1732	1732	0	0
673	1772	1772	0	0
674	1743	1742	0	1
675	1781	1781	0	0
676	1815	1815	0	0
677	1726	1725	0	1
678	1759	1759	0	0
679	1743	1743	0	0
680	1703	1701	1	1
681	1692	1692	0	0
682	1689	1689	0	0
683	1628	1628	0	0
684	1605	1605	0	0
685	1637	1637	0	0
686	1605	1605	0	0
687	1542	1542	0	0
688	1606	1606	0	0
689	1599	1599	0	0
690	1546	1545	0	1
691	1562	1561	0	1
692	1525	1524	1	0
693	1592	1592	0	0
694	1539	1539	0	0
695	1474	1474	0	0
696	1456	1456	0	0
697	1461	1461	0	0
698	1436	1436	0	0
699	1477	1476	1	0
700	1437	1437	0	0
701	1322	1322	0	0
702	1454	1454	0	0
703	1424	1424	0	0
704	1352	1352	0	0
705	1366	1366	0	0
706	1363	1363	0	0
707	1360	1360	0	0
708	1319	1318	0	1
709	1374	1374	0	0
710	1335	1335	0	0
711	1338	1338	0	0
712	1279	1278	0	1
713	1304	1304	0	0
714	1274	1274	0	0
715	1292	1291	1	0
716	1180	1180	0	0
717	1299	1299	0	0
718	1199	1199	0	0
719	1202	1202	0	0
720	1218	1218	0	0
721	1179	1179	0	0
722	1119	1119	0	0
723	1232	1232	0	0
724	1140	1140	0	0
725	1151	1151	0	0
726	1166	1166	0	0
727	1115	1115	0	0
728	1077	1077	0	0
729	1118	1118	0	0
730	1111	1110	0	1
731	1098	1098	0	0
732	1055	1055	0	0
733	1131	1130	0	1
734	1034	1034	0	0
735	1052	1052	0	0
736	1074	1073	1	0
737	1041	1041	0	0
738	1068	1068	0	0
739	1114	1114	0	0
740	1023	1022	0	1
741	1037	1036	0	1
742	1089	1089	0	0
743	1023	1023	0	0
744	1022	1022	0	0
745	955	955	0	0
746	1027	1027	0	0
747	930	930	0	0
748	1010	1009	0	1
749	962	962	0	0
750	984	984	0	0
751	947	947	0	0
752	936	936	0	0
753	952	952	0	0
754	943	943	0	0
755	926	926	0	0
756	919	919	0	0
757	922	921	1	0
758	885	885	0	0
759	876	876	0	0
760	857	857	0	0
761	855	854	0	1
762	890	890	0	0
763	837	837	0	0
764	889	889	0	0
765	831	831	0	0
766	783	783	0	0
767	843	843	0	0
768	821	820	0	1
769	791	791	0	0
770	828	828	0	0
771	814	814	0	0
772	776	776	0	0
773	748	748	0	0
774	789	788	1	0
775	776	776	0	0
776	768	768	0	0
777	744	744	0	0
778	706	706	0	0
779	705	705	0	0
780	747	747	0	0
781	688	688	0	0
782	667	667	0	0
783	723	723	0	0
784	703	702	0	1
785	714	714	0	0
786	682	682	0	0
787	669	669	0	0
788	704	704	0	0
789	653	652	1	0
790	664	664	0	0
791	635	635	0	0
792	671	671	0	0
793	640	640	0	0
794	636	636	0	0
795	636	636	0	0
796	623	623	0	0
797	590	588	0	2
798	591	591	0	0
799	643	643	0	0
800	611	610	0	1
801	547	547	0	0
802	597	597	0	0
803	595	595	0	0
804	500	500	0	0
805	536	536	0	0
806	528	528	0	0
807	531	531	0	0
808	546	545	0	1
809	561	561	0	0
810	593	593	0	0
811	589	589	0	0
812	506	506	0	0
813	491	491	0	0
814	489	489	0	0
815	497	497	0	0
816	511	510	1	0
817	512	511	1	0
818	456	456	0	0
819	474	474	0	0
820	472	471	1	0
821	498	496	1	1
822	448	448	0	0
823	449	449	0	0
824	438	438	0	0
825	403	403	0	0
826	443	443	0	0
827	437	437	0	0
828	414	414	0	0
829	413	413	0	0
830	391	391	0	0
831	431	431	0	0
832	431	431	0	0
833	402	402	0	0
834	437	437	0	0
835	408	408	0	0
836	408	408	0	0
837	416	416	0	0
838	409	409	0	0
839	391	391	0	0
840	391	391	0	0
841	368	368	0	0
842	410	410	0	0
843	354	354	0	0
844	384	384	0	0
845	410	409	0	1
846	337	337	0	0
847	335	335	0	0
848	324	324	0	0
849	340	340	0	0
850	367	366	0	1
851	357	357	0	0
852	344	344	0	0
853	339	339	0	0
854	351	351	0	0
855	310	310	0	0
856	331	331	0	0
857	300	300	0	0
858	265	265	0	0
859	306	306	0	0
860	314	314	0	0
861	291	291	0	0
862	284	283	1	0
863	317	317	0	0
864	308	308	0	0
865	266	266	0	0
866	257	257	0	0
867	282	282	0	0
868	266	266	0	0
869	283	283	0	0
870	263	263	0	0
871	293	293	0	0
872	254	254	0	0
873	269	269	0	0
874	265	265	0	0
875	261	261	0	0
876	259	259	0	0
877	253	253	0	0
878	222	222	0	0
879	278	278	0	0
880	254	254	0	0
881	264	264	0	0
882	223	223	0	0
883	261	261	0	0
884	234	234	0	0
885	254	254	0	0
886	228	228	0	0
887	247	247	0	0
888	253	253	0	0
889	251	251	0	0
890	220	220	0	0
891	247	247	0	0
892	193	193	0	0
893	209	209	0	0
894	192	192	0	0
895	215	215	0	0
896	204	204	0	0
897	220	220	0	0
898	184	183	0	1
899	196	196	0	0
900	200	200	0	0
901	198	198	0	0
902	201	201	0	0
903	183	183	0	0
904	197	197	0	0
905	181	180	0	1
906	205	205	0	0
907	214	214	0	0
908	186	186	0	0
909	175	175	0	0
910	179	178	1	0
911	190	190	0	0
912	173	173	0	0
913	194	193	0	1
914	162	162	0	0
915	194	194	0	0
916	158	158	0	0
917	153	153	0	0
918	204	204	0	0
919	159	159	0	0
920	152	151	0	1
921	167	167	0	0
922	161	161	0	0
923	161	161	0	0
924	169	169	0	0
925	162	161	0	1
926	173	173	0	0
927	183	183	0	0
928	160	160	0	0
929	142	142	0	0
930	170	170	0	0
931	172	172	0	0
932	167	167	0	0
933	144	144	0	0
934	159	159	0	0
935	156	156	0	0
936	165	165	0	0
937	150	150	0	0
938	139	139	0	0
939	141	141	0	0
